// Jest Snapshot v1, https://goo.gl/fbAQLP

exports[`Session screen matches snapshot 1`] = `
<View
  style={
    Object {
      "backgroundColor": "#292d3e",
      "flex": 1,
    }
  }
>
  <View
    style={
      Object {
        "alignItems": "center",
        "backgroundColor": "#292d3e",
        "flex": 1,
        "padding": 20,
      }
    }
  >
    <View
      style={
        Object {
          "alignItems": "center",
          "flexDirection": "row",
          "justifyContent": "space-between",
          "marginTop": "10%",
          "width": "85%",
        }
      }
    >
      <Text
        style={
          Object {
            "color": "white",
            "fontSize": 18,
          }
        }
      >
        
      </Text>
      <View
        style={
          Object {
            "borderBottomWidth": 1,
            "borderColor": "#707080",
            "color": "white",
            "width": "50%",
          }
        }
      >
        <View
          style={
            Object {
              "color": "white",
              "width": "100%",
            }
          }
        >
          <RNCPicker
            items={
              Array [
                Object {
                  "label": "",
                  "textColor": undefined,
                  "value": 0,
                },
                Object {
                  "label": "",
                  "textColor": undefined,
                  "value": 1,
                },
                Object {
                  "label": "",
                  "textColor": undefined,
                  "value": 4,
                },
                Object {
                  "label": "",
                  "textColor": undefined,
                  "value": 3,
                },
                Object {
                  "label": "",
                  "textColor": undefined,
                  "value": 2,
                },
              ]
            }
            onChange={[Function]}
            selectedIndex={0}
            style={
              Array [
                Object {
                  "height": 216,
                },
                undefined,
              ]
            }
          />
        </View>
      </View>
    </View>
    <View
      style={
        Object {
          "alignItems": "center",
          "flexDirection": "row",
          "justifyContent": "space-between",
          "marginTop": "10%",
          "width": "85%",
        }
      }
    >
      <Text
        style={
          Object {
            "color": "white",
            "fontSize": 18,
          }
        }
      >
        
      </Text>
      <View
        style={
          Object {
            "maxWidth": 100,
            "paddingHorizontal": 10,
            "width": "100%",
          }
        }
      >
        <View
          style={
            Object {
              "alignItems": "center",
              "borderBottomWidth": 1,
              "borderColor": "#86939e",
              "flexDirection": "row",
              "transform": Array [
                Object {
                  "translateX": 0,
                },
              ],
            }
          }
        >
          <TextInput
            allowFontScaling={true}
            editable={true}
            keyboardType="numeric"
            maxLength={3}
            onChangeText={[Function]}
            placeholderTextColor="#86939e"
            rejectResponderTermination={true}
            style={
              Object {
                "alignSelf": "center",
                "color": "white",
                "flex": 1,
                "fontSize": 18,
                "minHeight": 40,
              }
            }
            testID="RNE__Input__text-input"
            underlineColorAndroid="transparent"
            value="20"
          />
        </View>
        <Text
          style={
            Object {
              "color": "#ff190c",
              "fontSize": 12,
              "margin": 5,
            }
          }
        />
      </View>
      <Text
        style={
          Object {
            "color": "white",
            "fontSize": 18,
          }
        }
      >
         ft
      </Text>
    </View>
    <View
      style={
        Object {
          "alignItems": "center",
          "flexDirection": "row",
          "justifyContent": "space-between",
          "marginTop": "10%",
          "width": "85%",
        }
      }
    >
      <Text
        style={
          Object {
            "color": "white",
            "fontSize": 18,
          }
        }
      >
        
      </Text>
      <View
        style={
          Object {
            "maxWidth": 100,
            "paddingHorizontal": 10,
            "width": "100%",
          }
        }
      >
        <View
          style={
            Object {
              "alignItems": "center",
              "borderBottomWidth": 1,
              "borderColor": "#86939e",
              "flexDirection": "row",
              "transform": Array [
                Object {
                  "translateX": 0,
                },
              ],
            }
          }
        >
          <TextInput
            allowFontScaling={true}
            editable={true}
            keyboardType="numeric"
            maxLength={3}
            onChangeText={[Function]}
            placeholderTextColor="#86939e"
            rejectResponderTermination={true}
            style={
              Object {
                "alignSelf": "center",
                "color": "white",
                "flex": 1,
                "fontSize": 18,
                "minHeight": 40,
              }
            }
            testID="RNE__Input__text-input"
            underlineColorAndroid="transparent"
            value="0"
          />
        </View>
        <Text
          style={
            Object {
              "color": "#ff190c",
              "fontSize": 12,
              "margin": 5,
            }
          }
        />
      </View>
      <Text
        style={
          Object {
            "color": "white",
            "fontSize": 18,
          }
        }
      >
         m/s
      </Text>
    </View>
    <View
      style={
        Object {
          "alignItems": "center",
          "flexDirection": "row",
          "justifyContent": "space-between",
          "marginTop": "10%",
          "width": "85%",
        }
      }
    >
      <Text
        style={
          Object {
            "color": "white",
            "fontSize": 18,
          }
        }
      >
        
      </Text>
      <View
        style={
          Object {
            "borderBottomWidth": 1,
            "borderColor": "#707080",
            "color": "white",
            "width": "50%",
          }
        }
      >
        <View
          style={
            Object {
              "color": "white",
              "width": "100%",
            }
          }
        >
          <RNCPicker
            items={
              Array [
                Object {
                  "label": "",
                  "textColor": undefined,
                  "value": 0,
                },
                Object {
                  "label": "",
                  "textColor": undefined,
                  "value": 2,
                },
                Object {
                  "label": "",
                  "textColor": undefined,
                  "value": 3,
                },
                Object {
                  "label": "",
                  "textColor": undefined,
                  "value": 1,
                },
              ]
            }
            onChange={[Function]}
            selectedIndex={0}
            style={
              Array [
                Object {
                  "height": 216,
                },
                undefined,
              ]
            }
          />
        </View>
      </View>
    </View>
  </View>
  <View
    style={
      Object {
        "alignItems": "center",
        "backgroundColor": "#1b1e2b",
        "borderTopColor": "#11131b",
        "borderTopWidth": 1,
        "flexDirection": "row",
        "justifyContent": "flex-end",
        "padding": 20,
      }
    }
  >
    <Text
      accessible={true}
      focusable={true}
      onClick={[Function]}
      onResponderGrant={[Function]}
      onResponderMove={[Function]}
      onResponderRelease={[Function]}
      onResponderTerminate={[Function]}
      onResponderTerminationRequest={[Function]}
      onStartShouldSetResponder={[Function]}
      style={
        Object {
          "color": "white",
          "fontSize": 18,
        }
      }
    >
      
    </Text>
  </View>
</View>
`;
