// Jest Snapshot v1, https://goo.gl/fbAQLP

exports[`Dashboard screen matches snapshot 1`] = `
<View
  style={
    Object {
      "alignItems": "center",
      "backgroundColor": "#1b1e2b",
      "flex": 1,
      "justifyContent": "flex-start",
      "paddingTop": 20,
    }
  }
>
  <View
    style={
      Object {
        "flex": 1,
      }
    }
  >
    <RCTScrollView
      data={
        Array [
          null,
          0,
          1,
          4,
          3,
          2,
        ]
      }
      disableVirtualization={false}
      getItem={[Function]}
      getItemCount={[Function]}
      horizontal={false}
      initialNumToRender={10}
      keyExtractor={[Function]}
      maxToRenderPerBatch={10}
      onContentSizeChange={[Function]}
      onEndReachedThreshold={2}
      onLayout={[Function]}
      onMomentumScrollEnd={[Function]}
      onScroll={[Function]}
      onScrollBeginDrag={[Function]}
      onScrollEndDrag={[Function]}
      removeClippedSubviews={false}
      renderItem={[Function]}
      scrollEventThrottle={50}
      showsVerticalScrollIndicator={true}
      stickyHeaderIndices={Array []}
      updateCellsBatchingPeriod={50}
      viewabilityConfigCallbackPairs={Array []}
      windowSize={21}
    >
      <View>
        <View
          onLayout={[Function]}
          style={null}
        >
          <View
            style={
              Object {
                "alignItems": "center",
                "flexDirection": "row",
                "justifyContent": "space-between",
                "paddingBottom": 10,
                "paddingTop": 10,
              }
            }
          >
            <Text
              style={
                Object {
                  "color": "white",
                  "fontSize": 22,
                  "paddingHorizontal": 20,
                }
              }
            >
              
            </Text>
            <View
              style={
                Object {
                  "alignItems": "center",
                  "flexDirection": "row",
                  "width": 170,
                }
              }
            >
              <View
                onLayout={[Function]}
                style={
                  Object {
                    "height": 100,
                    "width": 100,
                  }
                }
              />
              <Text
                style={
                  Object {
                    "color": "#ff0000",
                    "fontSize": 22,
                    "paddingHorizontal": 20,
                  }
                }
              >
                0
                %
              </Text>
            </View>
          </View>
        </View>
        <View
          onLayout={[Function]}
          style={null}
        >
          <View
            style={
              Object {
                "alignItems": "center",
                "flexDirection": "row",
                "justifyContent": "space-between",
                "paddingBottom": 10,
                "paddingTop": 10,
              }
            }
          >
            <Text
              style={
                Object {
                  "color": "white",
                  "fontSize": 22,
                  "paddingHorizontal": 20,
                }
              }
            >
              
            </Text>
            <View
              style={
                Object {
                  "alignItems": "center",
                  "flexDirection": "row",
                  "width": 170,
                }
              }
            >
              <View
                onLayout={[Function]}
                style={
                  Object {
                    "height": 100,
                    "width": 100,
                  }
                }
              />
              <Text
                style={
                  Object {
                    "color": "#ff0000",
                    "fontSize": 22,
                    "paddingHorizontal": 20,
                  }
                }
              >
                0
                %
              </Text>
            </View>
          </View>
        </View>
        <View
          onLayout={[Function]}
          style={null}
        >
          <View
            style={
              Object {
                "alignItems": "center",
                "flexDirection": "row",
                "justifyContent": "space-between",
                "paddingBottom": 10,
                "paddingTop": 10,
              }
            }
          >
            <Text
              style={
                Object {
                  "color": "white",
                  "fontSize": 22,
                  "paddingHorizontal": 20,
                }
              }
            >
              
            </Text>
            <View
              style={
                Object {
                  "alignItems": "center",
                  "flexDirection": "row",
                  "width": 170,
                }
              }
            >
              <View
                onLayout={[Function]}
                style={
                  Object {
                    "height": 100,
                    "width": 100,
                  }
                }
              />
              <Text
                style={
                  Object {
                    "color": "#ff0000",
                    "fontSize": 22,
                    "paddingHorizontal": 20,
                  }
                }
              >
                0
                %
              </Text>
            </View>
          </View>
        </View>
        <View
          onLayout={[Function]}
          style={null}
        >
          <View
            style={
              Object {
                "alignItems": "center",
                "flexDirection": "row",
                "justifyContent": "space-between",
                "paddingBottom": 10,
                "paddingTop": 10,
              }
            }
          >
            <Text
              style={
                Object {
                  "color": "white",
                  "fontSize": 22,
                  "paddingHorizontal": 20,
                }
              }
            >
              
            </Text>
            <View
              style={
                Object {
                  "alignItems": "center",
                  "flexDirection": "row",
                  "width": 170,
                }
              }
            >
              <View
                onLayout={[Function]}
                style={
                  Object {
                    "height": 100,
                    "width": 100,
                  }
                }
              />
              <Text
                style={
                  Object {
                    "color": "#ff0000",
                    "fontSize": 22,
                    "paddingHorizontal": 20,
                  }
                }
              >
                0
                %
              </Text>
            </View>
          </View>
        </View>
        <View
          onLayout={[Function]}
          style={null}
        >
          <View
            style={
              Object {
                "alignItems": "center",
                "flexDirection": "row",
                "justifyContent": "space-between",
                "paddingBottom": 10,
                "paddingTop": 10,
              }
            }
          >
            <Text
              style={
                Object {
                  "color": "white",
                  "fontSize": 22,
                  "paddingHorizontal": 20,
                }
              }
            >
              
            </Text>
            <View
              style={
                Object {
                  "alignItems": "center",
                  "flexDirection": "row",
                  "width": 170,
                }
              }
            >
              <View
                onLayout={[Function]}
                style={
                  Object {
                    "height": 100,
                    "width": 100,
                  }
                }
              />
              <Text
                style={
                  Object {
                    "color": "#ff0000",
                    "fontSize": 22,
                    "paddingHorizontal": 20,
                  }
                }
              >
                0
                %
              </Text>
            </View>
          </View>
        </View>
        <View
          onLayout={[Function]}
          style={null}
        >
          <View
            style={
              Object {
                "alignItems": "center",
                "flexDirection": "row",
                "justifyContent": "space-between",
                "paddingBottom": 10,
                "paddingTop": 10,
              }
            }
          >
            <Text
              style={
                Object {
                  "color": "white",
                  "fontSize": 22,
                  "paddingHorizontal": 20,
                }
              }
            >
              
            </Text>
            <View
              style={
                Object {
                  "alignItems": "center",
                  "flexDirection": "row",
                  "width": 170,
                }
              }
            >
              <View
                onLayout={[Function]}
                style={
                  Object {
                    "height": 100,
                    "width": 100,
                  }
                }
              />
              <Text
                style={
                  Object {
                    "color": "#ff0000",
                    "fontSize": 22,
                    "paddingHorizontal": 20,
                  }
                }
              >
                0
                %
              </Text>
            </View>
          </View>
        </View>
      </View>
    </RCTScrollView>
  </View>
  <View
    style={
      Object {
        "alignItems": "center",
        "backgroundColor": "#292d3e",
        "borderTopColor": "#11131b",
        "borderTopWidth": 1,
        "height": 100,
        "justifyContent": "center",
        "width": "100%",
      }
    }
  >
    <View
      accessible={true}
      focusable={true}
      onClick={[Function]}
      onResponderGrant={[Function]}
      onResponderMove={[Function]}
      onResponderRelease={[Function]}
      onResponderTerminate={[Function]}
      onResponderTerminationRequest={[Function]}
      onStartShouldSetResponder={[Function]}
      style={
        Object {
          "alignItems": "center",
          "backgroundColor": "#1b1e2b",
          "height": 50,
          "justifyContent": "center",
          "marginTop": 10,
          "opacity": 1,
          "width": 200,
        }
      }
    >
      <Text
        style={
          Object {
            "color": "white",
          }
        }
      >
        
      </Text>
    </View>
  </View>
</View>
`;
