// Jest Snapshot v1, https://goo.gl/fbAQLP

exports[`login Screen snapshot when backbutton pressed navigate is 1`] = `
Array [
  <View
    style={
      Object {
        "alignItems": "center",
        "backgroundColor": "#292d3e",
        "flex": 1,
      }
    }
  >
    <View
      style={
        Object {
          "alignItems": "center",
          "display": "flex",
          "justifyContent": "center",
          "padding": 20,
          "width": "100%",
        }
      }
    >
      <View
        style={
          Object {
            "marginBottom": 20,
            "width": "80%",
          }
        }
      >
        <View
          style={
            Object {
              "paddingHorizontal": 10,
              "width": "100%",
            }
          }
        >
          <Text
            style={
              Object {
                "color": "#FFFFFF",
              }
            }
          >
            
          </Text>
          <View
            style={
              Object {
                "alignItems": "center",
                "borderBottomWidth": 1,
                "borderColor": "#86939e",
                "flexDirection": "row",
                "transform": Array [
                  Object {
                    "translateX": 0,
                  },
                ],
              }
            }
          >
            <View
              style={
                Object {
                  "alignItems": "center",
                  "height": 40,
                  "justifyContent": "center",
                  "marginVertical": 4,
                  "paddingRight": 4,
                }
              }
            >
              <View
                style={
                  Object {
                    "overflow": "hidden",
                  }
                }
              >
                <View>
                  <View
                    style={
                      Object {
                        "alignItems": "center",
                        "backgroundColor": "transparent",
                        "justifyContent": "center",
                      }
                    }
                  >
                    <Text />
                  </View>
                </View>
              </View>
            </View>
            <TextInput
              allowFontScaling={true}
              editable={true}
              keyboardType="email-address"
              onChangeText={[Function]}
              placeholder=""
              placeholderTextColor="#86939e"
              rejectResponderTermination={true}
              style={
                Object {
                  "alignSelf": "center",
                  "color": "#FFFFFF",
                  "flex": 1,
                  "fontSize": 18,
                  "minHeight": 40,
                }
              }
              testID="email"
              textContentType="emailAddress"
              underlineColorAndroid="transparent"
              value=""
            />
          </View>
          <Text
            style={
              Object {
                "color": "#ff190c",
                "fontSize": 12,
                "height": 0,
                "margin": 0,
                "padding": 0,
              }
            }
          >
            
          </Text>
        </View>
      </View>
      <View
        style={
          Object {
            "marginBottom": 20,
            "width": "80%",
          }
        }
      >
        <View
          style={
            Object {
              "paddingHorizontal": 10,
              "width": "100%",
            }
          }
        >
          <Text
            style={
              Object {
                "color": "#FFFFFF",
              }
            }
          >
            
          </Text>
          <View
            style={
              Object {
                "alignItems": "center",
                "borderBottomWidth": 1,
                "borderColor": "#86939e",
                "flexDirection": "row",
                "transform": Array [
                  Object {
                    "translateX": 0,
                  },
                ],
              }
            }
          >
            <View
              style={
                Object {
                  "alignItems": "center",
                  "height": 40,
                  "justifyContent": "center",
                  "marginVertical": 4,
                  "paddingRight": 4,
                }
              }
            >
              <View
                style={
                  Object {
                    "overflow": "hidden",
                  }
                }
              >
                <View>
                  <View
                    style={
                      Object {
                        "alignItems": "center",
                        "backgroundColor": "transparent",
                        "justifyContent": "center",
                      }
                    }
                  >
                    <Text />
                  </View>
                </View>
              </View>
            </View>
            <TextInput
              allowFontScaling={true}
              editable={false}
              onChangeText={[Function]}
              onSubmitEditing={[Function]}
              placeholder=""
              placeholderTextColor="#86939e"
              rejectResponderTermination={true}
              secureTextEntry={true}
              style={
                Object {
                  "alignSelf": "center",
                  "color": "#FFFFFF",
                  "flex": 1,
                  "fontSize": 18,
                  "minHeight": 40,
                  "opacity": 0.5,
                }
              }
              testID="pw"
              textContentType="password"
              underlineColorAndroid="transparent"
              value=""
            />
          </View>
          <Text
            style={
              Object {
                "color": "#ff190c",
                "fontSize": 12,
                "height": 0,
                "margin": 0,
                "padding": 0,
              }
            }
          >
            
          </Text>
        </View>
      </View>
      <View
        style={
          Object {
            "flexDirection": "row",
            "marginBottom": 15,
            "width": "80%",
          }
        }
      />
      <View
        style={
          Object {
            "borderRadius": 3,
            "overflow": "hidden",
          }
        }
      >
        <View
          accessibilityLabel="submit"
          accessibilityRole="button"
          accessibilityState={
            Object {
              "busy": false,
              "disabled": true,
            }
          }
          accessible={true}
          focusable={true}
          onClick={[Function]}
          onResponderGrant={[Function]}
          onResponderMove={[Function]}
          onResponderRelease={[Function]}
          onResponderTerminate={[Function]}
          onResponderTerminationRequest={[Function]}
          onStartShouldSetResponder={[Function]}
          style={
            Object {
              "opacity": 1,
            }
          }
          testID="submit"
        >
          <View
            style={
              Object {
                "alignItems": "center",
                "backgroundColor": "hsl(208, 8%, 90%)",
                "borderColor": "#2089dc",
                "borderRadius": 3,
                "borderWidth": 0,
                "flexDirection": "row",
                "justifyContent": "center",
                "padding": 8,
              }
            }
          />
        </View>
      </View>
    </View>
  </View>,
  ")",
]
`;
